Host Name:                 GRANPA
OS Name:                   Microsoft(R) Windows(R) Server 2003, Standard Edition
OS Version:                5.2.3790 Service Pack 2 Build 3790
OS Manufacturer:           Microsoft Corporation
OS Configuration:          Standalone Server
OS Build Type:             Uniprocessor Free
Registered Owner:          HTB
Registered Organization:   HTB
Product ID:                69712-296-0024942-44782
Original Install Date:     4/12/2017, 5:07:40 PM
System Up Time:            0 Days, 0 Hours, 56 Minutes, 18 Seconds
System Manufacturer:       VMware, Inc.
System Model:              VMware Virtual Platform
System Type:               X86-based PC
Processor(s):              1 Processor(s) Installed.
                           [01]: x86 Family 23 Model 1 Stepping 2 AuthenticAMD ~2000 Mhz
BIOS Version:              INTEL  - 6040000
Windows Directory:         C:\WINDOWS
System Directory:          C:\WINDOWS\system32
Boot Device:               \Device\HarddiskVolume1
System Locale:             en-us;English (United States)
Input Locale:              en-us;English (United States)
Time Zone:                 (GMT+02:00) Athens, Beirut, Istanbul, Minsk
Total Physical Memory:     1,023 MB
Available Physical Memory: 797 MB
Page File: Max Size:       2,470 MB
Page File: Available:      2,331 MB
Page File: In Use:         139 MB
Page File Location(s):     C:\pagefile.sys
Domain:                    HTB
Logon Server:              N/A
Hotfix(s):                 1 Hotfix(s) Installed.
                           [01]: Q147222
Network Card(s):           N/A
