[{
    "attributes": {
        "accountExpires": [
            "9999-12-31 23:59:59.999999+00:00"
        ],
        "badPasswordTime": [
            "1601-01-01 00:00:00+00:00"
        ],
        "badPwdCount": [
            0
        ],
        "cn": [
            "SAUNA"
        ],
        "codePage": [
            0
        ],
        "countryCode": [
            0
        ],
        "dNSHostName": [
            "SAUNA.EGOTISTICAL-BANK.LOCAL"
        ],
        "dSCorePropagationData": [
            "2020-01-23 06:15:24+00:00",
            "2020-01-23 05:45:30+00:00",
            "1601-01-01 00:04:17+00:00"
        ],
        "distinguishedName": [
            "CN=SAUNA,OU=Domain Controllers,DC=EGOTISTICAL-BANK,DC=LOCAL"
        ],
        "instanceType": [
            4
        ],
        "isCriticalSystemObject": [
            true
        ],
        "lastLogoff": [
            "1601-01-01 00:00:00+00:00"
        ],
        "lastLogon": [
            "2021-02-04 06:01:08.765411+00:00"
        ],
        "lastLogonTimestamp": [
            "2021-02-04 04:01:39.420235+00:00"
        ],
        "localPolicyFlags": [
            0
        ],
        "logonCount": [
            63
        ],
        "msDFSR-ComputerReferenceBL": [
            "CN=SAUNA,CN=Topology,CN=Domain System Volume,CN=DFSR-GlobalSettings,CN=System,DC=EGOTISTICAL-BANK,DC=LOCAL"
        ],
        "msDS-GenerationId": [
            {
                "encoded": "ha9Qi4ufBtk=",
                "encoding": "base64"
            }
        ],
        "msDS-SupportedEncryptionTypes": [
            28
        ],
        "name": [
            "SAUNA"
        ],
        "objectCategory": [
            "CN=Computer,CN=Schema,CN=Configuration,DC=EGOTISTICAL-BANK,DC=LOCAL"
        ],
        "objectClass": [
            "top",
            "person",
            "organizationalPerson",
            "user",
            "computer"
        ],
        "objectGUID": [
            "{9f1d1db5-ce78-498d-aa90-16781495f771}"
        ],
        "objectSid": [
            "S-1-5-21-2966785786-3096785034-1186376766-1000"
        ],
        "operatingSystem": [
            "Windows Server 2019 Standard"
        ],
        "operatingSystemVersion": [
            "10.0 (17763)"
        ],
        "primaryGroupID": [
            516
        ],
        "pwdLastSet": [
            "2021-02-04 04:01:29.717108+00:00"
        ],
        "rIDSetReferences": [
            "CN=RID Set,CN=SAUNA,OU=Domain Controllers,DC=EGOTISTICAL-BANK,DC=LOCAL"
        ],
        "sAMAccountName": [
            "SAUNA$"
        ],
        "sAMAccountType": [
            805306369
        ],
        "serverReferenceBL": [
            "CN=SAUNA,CN=Servers,CN=Default-First-Site-Name,CN=Sites,CN=Configuration,DC=EGOTISTICAL-BANK,DC=LOCAL"
        ],
        "servicePrincipalName": [
            "Dfsr-12F9A27C-BF97-4787-9364-D31B6C55EB04/SAUNA.EGOTISTICAL-BANK.LOCAL",
            "ldap/SAUNA.EGOTISTICAL-BANK.LOCAL/ForestDnsZones.EGOTISTICAL-BANK.LOCAL",
            "ldap/SAUNA.EGOTISTICAL-BANK.LOCAL/DomainDnsZones.EGOTISTICAL-BANK.LOCAL",
            "DNS/SAUNA.EGOTISTICAL-BANK.LOCAL",
            "GC/SAUNA.EGOTISTICAL-BANK.LOCAL/EGOTISTICAL-BANK.LOCAL",
            "RestrictedKrbHost/SAUNA.EGOTISTICAL-BANK.LOCAL",
            "RestrictedKrbHost/SAUNA",
            "RPC/b3e0be40-25c6-44ec-b2b9-9ff85c44b2ec._msdcs.EGOTISTICAL-BANK.LOCAL",
            "HOST/SAUNA/EGOTISTICALBANK",
            "HOST/SAUNA.EGOTISTICAL-BANK.LOCAL/EGOTISTICALBANK",
            "HOST/SAUNA",
            "HOST/SAUNA.EGOTISTICAL-BANK.LOCAL",
            "HOST/SAUNA.EGOTISTICAL-BANK.LOCAL/EGOTISTICAL-BANK.LOCAL",
            "E3514235-4B06-11D1-AB04-00C04FC2DCD2/b3e0be40-25c6-44ec-b2b9-9ff85c44b2ec/EGOTISTICAL-BANK.LOCAL",
            "ldap/SAUNA/EGOTISTICALBANK",
            "ldap/b3e0be40-25c6-44ec-b2b9-9ff85c44b2ec._msdcs.EGOTISTICAL-BANK.LOCAL",
            "ldap/SAUNA.EGOTISTICAL-BANK.LOCAL/EGOTISTICALBANK",
            "ldap/SAUNA",
            "ldap/SAUNA.EGOTISTICAL-BANK.LOCAL",
            "ldap/SAUNA.EGOTISTICAL-BANK.LOCAL/EGOTISTICAL-BANK.LOCAL"
        ],
        "uSNChanged": [
            57373
        ],
        "uSNCreated": [
            12293
        ],
        "userAccountControl": [
            532480
        ],
        "whenChanged": [
            "2021-02-04 04:01:39+00:00"
        ],
        "whenCreated": [
            "2020-01-23 05:45:30+00:00"
        ]
    },
    "dn": "CN=SAUNA,OU=Domain Controllers,DC=EGOTISTICAL-BANK,DC=LOCAL"
}]